{
   "type": "postgres",
   "host": "localhost",
   "port": 5432,
   "username": "postgres",
   "password": "123",
   "database": "postgres",
   "synchronize": true,
   "logging": false,
   "entities": ["dist/**/*.entity.js"],
   "migrations": [
      "dist/migration/**/*.js"
   ],
   "subscribers": [
      "dist/subscriber/**/*.js"
   ],
   "cli": {
      "entitiesDir": "src/entity",
      "migrationsDir": "src/migration",
      "subscribersDir": "src/subscriber"
   }
}